{
    "count": 5642,
    "next": "https://api.octopus.energy/v1/electricity-meter-points/2000012136364/meters/21J0042588/consumption/?page=2",
    "previous": null,
    "results": [
        {
            "consumption": 0.78,
            "interval_start": "2022-03-07T23:30:00Z",
            "interval_end": "2022-03-08T00:00:00Z"
        },
        {
            "consumption": 0.694,
            "interval_start": "2022-03-07T23:00:00Z",
            "interval_end": "2022-03-07T23:30:00Z"
        },
        {
            "consumption": 1.553,
            "interval_start": "2022-03-07T22:30:00Z",
            "interval_end": "2022-03-07T23:00:00Z"
        },
        {
            "consumption": 3.362,
            "interval_start": "2022-03-07T22:00:00Z",
            "interval_end": "2022-03-07T22:30:00Z"
        },
        {
            "consumption": 0.51,
            "interval_start": "2022-03-07T21:30:00Z",
            "interval_end": "2022-03-07T22:00:00Z"
        },
        {
            "consumption": 0.309,
            "interval_start": "2022-03-07T21:00:00Z",
            "interval_end": "2022-03-07T21:30:00Z"
        },
        {
            "consumption": 0.404,
            "interval_start": "2022-03-07T20:30:00Z",
            "interval_end": "2022-03-07T21:00:00Z"
        },
        {
            "consumption": 0.281,
            "interval_start": "2022-03-07T20:00:00Z",
            "interval_end": "2022-03-07T20:30:00Z"
        },
        {
            "consumption": 0.277,
            "interval_start": "2022-03-07T19:30:00Z",
            "interval_end": "2022-03-07T20:00:00Z"
        },
        {
            "consumption": 0.21,
            "interval_start": "2022-03-07T19:00:00Z",
            "interval_end": "2022-03-07T19:30:00Z"
        },
        {
            "consumption": 0.282,
            "interval_start": "2022-03-07T18:30:00Z",
            "interval_end": "2022-03-07T19:00:00Z"
        },
        {
            "consumption": 0.154,
            "interval_start": "2022-03-07T18:00:00Z",
            "interval_end": "2022-03-07T18:30:00Z"
        },
        {
            "consumption": 0.15,
            "interval_start": "2022-03-07T17:30:00Z",
            "interval_end": "2022-03-07T18:00:00Z"
        },
        {
            "consumption": 0.219,
            "interval_start": "2022-03-07T17:00:00Z",
            "interval_end": "2022-03-07T17:30:00Z"
        },
        {
            "consumption": 0.195,
            "interval_start": "2022-03-07T16:30:00Z",
            "interval_end": "2022-03-07T17:00:00Z"
        },
        {
            "consumption": 0.26,
            "interval_start": "2022-03-07T16:00:00Z",
            "interval_end": "2022-03-07T16:30:00Z"
        },
        {
            "consumption": 0.189,
            "interval_start": "2022-03-07T15:30:00Z",
            "interval_end": "2022-03-07T16:00:00Z"
        },
        {
            "consumption": 0.148,
            "interval_start": "2022-03-07T15:00:00Z",
            "interval_end": "2022-03-07T15:30:00Z"
        },
        {
            "consumption": 0.154,
            "interval_start": "2022-03-07T14:30:00Z",
            "interval_end": "2022-03-07T15:00:00Z"
        },
        {
            "consumption": 0.157,
            "interval_start": "2022-03-07T14:00:00Z",
            "interval_end": "2022-03-07T14:30:00Z"
        },
        {
            "consumption": 0.153,
            "interval_start": "2022-03-07T13:30:00Z",
            "interval_end": "2022-03-07T14:00:00Z"
        },
        {
            "consumption": 0.158,
            "interval_start": "2022-03-07T13:00:00Z",
            "interval_end": "2022-03-07T13:30:00Z"
        },
        {
            "consumption": 0.206,
            "interval_start": "2022-03-07T12:30:00Z",
            "interval_end": "2022-03-07T13:00:00Z"
        },
        {
            "consumption": 0.223,
            "interval_start": "2022-03-07T12:00:00Z",
            "interval_end": "2022-03-07T12:30:00Z"
        },
        {
            "consumption": 0.18,
            "interval_start": "2022-03-07T11:30:00Z",
            "interval_end": "2022-03-07T12:00:00Z"
        },
        {
            "consumption": 0.156,
            "interval_start": "2022-03-07T11:00:00Z",
            "interval_end": "2022-03-07T11:30:00Z"
        },
        {
            "consumption": 0.168,
            "interval_start": "2022-03-07T10:30:00Z",
            "interval_end": "2022-03-07T11:00:00Z"
        },
        {
            "consumption": 0.165,
            "interval_start": "2022-03-07T10:00:00Z",
            "interval_end": "2022-03-07T10:30:00Z"
        },
        {
            "consumption": 0.113,
            "interval_start": "2022-03-07T09:30:00Z",
            "interval_end": "2022-03-07T10:00:00Z"
        },
        {
            "consumption": 0.091,
            "interval_start": "2022-03-07T09:00:00Z",
            "interval_end": "2022-03-07T09:30:00Z"
        },
        {
            "consumption": 0.132,
            "interval_start": "2022-03-07T08:30:00Z",
            "interval_end": "2022-03-07T09:00:00Z"
        },
        {
            "consumption": 0.132,
            "interval_start": "2022-03-07T08:00:00Z",
            "interval_end": "2022-03-07T08:30:00Z"
        },
        {
            "consumption": 0.139,
            "interval_start": "2022-03-07T07:30:00Z",
            "interval_end": "2022-03-07T08:00:00Z"
        },
        {
            "consumption": 0.134,
            "interval_start": "2022-03-07T07:00:00Z",
            "interval_end": "2022-03-07T07:30:00Z"
        },
        {
            "consumption": 1.665,
            "interval_start": "2022-03-07T06:30:00Z",
            "interval_end": "2022-03-07T07:00:00Z"
        },
        {
            "consumption": 0.088,
            "interval_start": "2022-03-07T06:00:00Z",
            "interval_end": "2022-03-07T06:30:00Z"
        },
        {
            "consumption": 0.086,
            "interval_start": "2022-03-07T05:30:00Z",
            "interval_end": "2022-03-07T06:00:00Z"
        },
        {
            "consumption": 0.092,
            "interval_start": "2022-03-07T05:00:00Z",
            "interval_end": "2022-03-07T05:30:00Z"
        },
        {
            "consumption": 0.116,
            "interval_start": "2022-03-07T04:30:00Z",
            "interval_end": "2022-03-07T05:00:00Z"
        },
        {
            "consumption": 0.136,
            "interval_start": "2022-03-07T04:00:00Z",
            "interval_end": "2022-03-07T04:30:00Z"
        },
        {
            "consumption": 0.126,
            "interval_start": "2022-03-07T03:30:00Z",
            "interval_end": "2022-03-07T04:00:00Z"
        },
        {
            "consumption": 0.093,
            "interval_start": "2022-03-07T03:00:00Z",
            "interval_end": "2022-03-07T03:30:00Z"
        },
        {
            "consumption": 0.094,
            "interval_start": "2022-03-07T02:30:00Z",
            "interval_end": "2022-03-07T03:00:00Z"
        },
        {
            "consumption": 0.091,
            "interval_start": "2022-03-07T02:00:00Z",
            "interval_end": "2022-03-07T02:30:00Z"
        },
        {
            "consumption": 0.117,
            "interval_start": "2022-03-07T01:30:00Z",
            "interval_end": "2022-03-07T02:00:00Z"
        },
        {
            "consumption": 3.71,
            "interval_start": "2022-03-07T01:00:00Z",
            "interval_end": "2022-03-07T01:30:00Z"
        },
        {
            "consumption": 4.099,
            "interval_start": "2022-03-07T00:30:00Z",
            "interval_end": "2022-03-07T01:00:00Z"
        },
        {
            "consumption": 4.659,
            "interval_start": "2022-03-07T00:00:00Z",
            "interval_end": "2022-03-07T00:30:00Z"
        },
        {
            "consumption": 4.043,
            "interval_start": "2022-03-06T23:30:00Z",
            "interval_end": "2022-03-07T00:00:00Z"
        },
        {
            "consumption": 4.687,
            "interval_start": "2022-03-06T23:00:00Z",
            "interval_end": "2022-03-06T23:30:00Z"
        },
        {
            "consumption": 4.379,
            "interval_start": "2022-03-06T22:30:00Z",
            "interval_end": "2022-03-06T23:00:00Z"
        },
        {
            "consumption": 1.482,
            "interval_start": "2022-03-06T22:00:00Z",
            "interval_end": "2022-03-06T22:30:00Z"
        },
        {
            "consumption": 0.457,
            "interval_start": "2022-03-06T21:30:00Z",
            "interval_end": "2022-03-06T22:00:00Z"
        },
        {
            "consumption": 0.452,
            "interval_start": "2022-03-06T21:00:00Z",
            "interval_end": "2022-03-06T21:30:00Z"
        },
        {
            "consumption": 0.288,
            "interval_start": "2022-03-06T20:30:00Z",
            "interval_end": "2022-03-06T21:00:00Z"
        },
        {
            "consumption": 0.239,
            "interval_start": "2022-03-06T20:00:00Z",
            "interval_end": "2022-03-06T20:30:00Z"
        },
        {
            "consumption": 0.238,
            "interval_start": "2022-03-06T19:30:00Z",
            "interval_end": "2022-03-06T20:00:00Z"
        },
        {
            "consumption": 0.269,
            "interval_start": "2022-03-06T19:00:00Z",
            "interval_end": "2022-03-06T19:30:00Z"
        },
        {
            "consumption": 0.315,
            "interval_start": "2022-03-06T18:30:00Z",
            "interval_end": "2022-03-06T19:00:00Z"
        },
        {
            "consumption": 0.305,
            "interval_start": "2022-03-06T18:00:00Z",
            "interval_end": "2022-03-06T18:30:00Z"
        },
        {
            "consumption": 0.32,
            "interval_start": "2022-03-06T17:30:00Z",
            "interval_end": "2022-03-06T18:00:00Z"
        },
        {
            "consumption": 0.65,
            "interval_start": "2022-03-06T17:00:00Z",
            "interval_end": "2022-03-06T17:30:00Z"
        },
        {
            "consumption": 1.769,
            "interval_start": "2022-03-06T16:30:00Z",
            "interval_end": "2022-03-06T17:00:00Z"
        },
        {
            "consumption": 0.201,
            "interval_start": "2022-03-06T16:00:00Z",
            "interval_end": "2022-03-06T16:30:00Z"
        },
        {
            "consumption": 0.15,
            "interval_start": "2022-03-06T15:30:00Z",
            "interval_end": "2022-03-06T16:00:00Z"
        },
        {
            "consumption": 0.175,
            "interval_start": "2022-03-06T15:00:00Z",
            "interval_end": "2022-03-06T15:30:00Z"
        },
        {
            "consumption": 0.232,
            "interval_start": "2022-03-06T14:30:00Z",
            "interval_end": "2022-03-06T15:00:00Z"
        },
        {
            "consumption": 0.256,
            "interval_start": "2022-03-06T14:00:00Z",
            "interval_end": "2022-03-06T14:30:00Z"
        },
        {
            "consumption": 0.242,
            "interval_start": "2022-03-06T13:30:00Z",
            "interval_end": "2022-03-06T14:00:00Z"
        },
        {
            "consumption": 0.171,
            "interval_start": "2022-03-06T13:00:00Z",
            "interval_end": "2022-03-06T13:30:00Z"
        },
        {
            "consumption": 0.21,
            "interval_start": "2022-03-06T12:30:00Z",
            "interval_end": "2022-03-06T13:00:00Z"
        },
        {
            "consumption": 0.156,
            "interval_start": "2022-03-06T12:00:00Z",
            "interval_end": "2022-03-06T12:30:00Z"
        },
        {
            "consumption": 0.227,
            "interval_start": "2022-03-06T11:30:00Z",
            "interval_end": "2022-03-06T12:00:00Z"
        },
        {
            "consumption": 0.148,
            "interval_start": "2022-03-06T11:00:00Z",
            "interval_end": "2022-03-06T11:30:00Z"
        },
        {
            "consumption": 0.158,
            "interval_start": "2022-03-06T10:30:00Z",
            "interval_end": "2022-03-06T11:00:00Z"
        },
        {
            "consumption": 0.295,
            "interval_start": "2022-03-06T10:00:00Z",
            "interval_end": "2022-03-06T10:30:00Z"
        },
        {
            "consumption": 0.114,
            "interval_start": "2022-03-06T09:30:00Z",
            "interval_end": "2022-03-06T10:00:00Z"
        },
        {
            "consumption": 0.091,
            "interval_start": "2022-03-06T09:00:00Z",
            "interval_end": "2022-03-06T09:30:00Z"
        },
        {
            "consumption": 0.092,
            "interval_start": "2022-03-06T08:30:00Z",
            "interval_end": "2022-03-06T09:00:00Z"
        },
        {
            "consumption": 0.091,
            "interval_start": "2022-03-06T08:00:00Z",
            "interval_end": "2022-03-06T08:30:00Z"
        },
        {
            "consumption": 0.1,
            "interval_start": "2022-03-06T07:30:00Z",
            "interval_end": "2022-03-06T08:00:00Z"
        },
        {
            "consumption": 0.133,
            "interval_start": "2022-03-06T07:00:00Z",
            "interval_end": "2022-03-06T07:30:00Z"
        },
        {
            "consumption": 0.137,
            "interval_start": "2022-03-06T06:30:00Z",
            "interval_end": "2022-03-06T07:00:00Z"
        },
        {
            "consumption": 0.119,
            "interval_start": "2022-03-06T06:00:00Z",
            "interval_end": "2022-03-06T06:30:00Z"
        },
        {
            "consumption": 0.093,
            "interval_start": "2022-03-06T05:30:00Z",
            "interval_end": "2022-03-06T06:00:00Z"
        },
        {
            "consumption": 0.09,
            "interval_start": "2022-03-06T05:00:00Z",
            "interval_end": "2022-03-06T05:30:00Z"
        },
        {
            "consumption": 0.085,
            "interval_start": "2022-03-06T04:30:00Z",
            "interval_end": "2022-03-06T05:00:00Z"
        },
        {
            "consumption": 0.131,
            "interval_start": "2022-03-06T04:00:00Z",
            "interval_end": "2022-03-06T04:30:00Z"
        },
        {
            "consumption": 0.143,
            "interval_start": "2022-03-06T03:30:00Z",
            "interval_end": "2022-03-06T04:00:00Z"
        },
        {
            "consumption": 0.387,
            "interval_start": "2022-03-06T03:00:00Z",
            "interval_end": "2022-03-06T03:30:00Z"
        },
        {
            "consumption": 0.356,
            "interval_start": "2022-03-06T02:30:00Z",
            "interval_end": "2022-03-06T03:00:00Z"
        },
        {
            "consumption": 0.407,
            "interval_start": "2022-03-06T02:00:00Z",
            "interval_end": "2022-03-06T02:30:00Z"
        },
        {
            "consumption": 0.598,
            "interval_start": "2022-03-06T01:30:00Z",
            "interval_end": "2022-03-06T02:00:00Z"
        },
        {
            "consumption": 1.853,
            "interval_start": "2022-03-06T01:00:00Z",
            "interval_end": "2022-03-06T01:30:00Z"
        },
        {
            "consumption": 3.89,
            "interval_start": "2022-03-06T00:30:00Z",
            "interval_end": "2022-03-06T01:00:00Z"
        },
        {
            "consumption": 3.903,
            "interval_start": "2022-03-06T00:00:00Z",
            "interval_end": "2022-03-06T00:30:00Z"
        },
        {
            "consumption": 3.943,
            "interval_start": "2022-03-05T23:30:00Z",
            "interval_end": "2022-03-06T00:00:00Z"
        },
        {
            "consumption": 3.93,
            "interval_start": "2022-03-05T23:00:00Z",
            "interval_end": "2022-03-05T23:30:00Z"
        },
        {
            "consumption": 3.923,
            "interval_start": "2022-03-05T22:30:00Z",
            "interval_end": "2022-03-05T23:00:00Z"
        },
        {
            "consumption": 3.903,
            "interval_start": "2022-03-05T22:00:00Z",
            "interval_end": "2022-03-05T22:30:00Z"
        }
    ]
}