{
    "count": 4076,
    "next": "https://api.octopus.energy/v1/gas-meter-points/4265185406/meters/G4W00364172127/consumption/?page=2",
    "previous": null,
    "results": [
        {
            "consumption": 0.126,
            "interval_start": "2022-03-07T23:00:00Z",
            "interval_end": "2022-03-07T23:30:00Z"
        },
        {
            "consumption": 0.093,
            "interval_start": "2022-03-07T22:30:00Z",
            "interval_end": "2022-03-07T23:00:00Z"
        },
        {
            "consumption": 0.148,
            "interval_start": "2022-03-07T22:00:00Z",
            "interval_end": "2022-03-07T22:30:00Z"
        },
        {
            "consumption": 0.171,
            "interval_start": "2022-03-07T21:30:00Z",
            "interval_end": "2022-03-07T22:00:00Z"
        },
        {
            "consumption": 0.192,
            "interval_start": "2022-03-07T21:00:00Z",
            "interval_end": "2022-03-07T21:30:00Z"
        },
        {
            "consumption": 0.185,
            "interval_start": "2022-03-07T20:30:00Z",
            "interval_end": "2022-03-07T21:00:00Z"
        },
        {
            "consumption": 0.153,
            "interval_start": "2022-03-07T20:00:00Z",
            "interval_end": "2022-03-07T20:30:00Z"
        },
        {
            "consumption": 0.168,
            "interval_start": "2022-03-07T19:30:00Z",
            "interval_end": "2022-03-07T20:00:00Z"
        },
        {
            "consumption": 0.138,
            "interval_start": "2022-03-07T19:00:00Z",
            "interval_end": "2022-03-07T19:30:00Z"
        },
        {
            "consumption": 0.174,
            "interval_start": "2022-03-07T18:30:00Z",
            "interval_end": "2022-03-07T19:00:00Z"
        },
        {
            "consumption": 0.159,
            "interval_start": "2022-03-07T18:00:00Z",
            "interval_end": "2022-03-07T18:30:00Z"
        },
        {
            "consumption": 0.151,
            "interval_start": "2022-03-07T17:30:00Z",
            "interval_end": "2022-03-07T18:00:00Z"
        },
        {
            "consumption": 0.113,
            "interval_start": "2022-03-07T17:00:00Z",
            "interval_end": "2022-03-07T17:30:00Z"
        },
        {
            "consumption": 0.055,
            "interval_start": "2022-03-07T16:30:00Z",
            "interval_end": "2022-03-07T17:00:00Z"
        },
        {
            "consumption": 0.157,
            "interval_start": "2022-03-07T16:00:00Z",
            "interval_end": "2022-03-07T16:30:00Z"
        },
        {
            "consumption": 0.172,
            "interval_start": "2022-03-07T15:30:00Z",
            "interval_end": "2022-03-07T16:00:00Z"
        },
        {
            "consumption": 0.181,
            "interval_start": "2022-03-07T15:00:00Z",
            "interval_end": "2022-03-07T15:30:00Z"
        },
        {
            "consumption": 0.183,
            "interval_start": "2022-03-07T14:30:00Z",
            "interval_end": "2022-03-07T15:00:00Z"
        },
        {
            "consumption": 0.183,
            "interval_start": "2022-03-07T14:00:00Z",
            "interval_end": "2022-03-07T14:30:00Z"
        },
        {
            "consumption": 0.184,
            "interval_start": "2022-03-07T13:30:00Z",
            "interval_end": "2022-03-07T14:00:00Z"
        },
        {
            "consumption": 0.183,
            "interval_start": "2022-03-07T13:00:00Z",
            "interval_end": "2022-03-07T13:30:00Z"
        },
        {
            "consumption": 0.184,
            "interval_start": "2022-03-07T12:30:00Z",
            "interval_end": "2022-03-07T13:00:00Z"
        },
        {
            "consumption": 0.185,
            "interval_start": "2022-03-07T12:00:00Z",
            "interval_end": "2022-03-07T12:30:00Z"
        },
        {
            "consumption": 0.191,
            "interval_start": "2022-03-07T11:30:00Z",
            "interval_end": "2022-03-07T12:00:00Z"
        },
        {
            "consumption": 0.19,
            "interval_start": "2022-03-07T11:00:00Z",
            "interval_end": "2022-03-07T11:30:00Z"
        },
        {
            "consumption": 0.196,
            "interval_start": "2022-03-07T10:30:00Z",
            "interval_end": "2022-03-07T11:00:00Z"
        },
        {
            "consumption": 0.202,
            "interval_start": "2022-03-07T10:00:00Z",
            "interval_end": "2022-03-07T10:30:00Z"
        },
        {
            "consumption": 0.19,
            "interval_start": "2022-03-07T09:30:00Z",
            "interval_end": "2022-03-07T10:00:00Z"
        },
        {
            "consumption": 0.192,
            "interval_start": "2022-03-07T09:00:00Z",
            "interval_end": "2022-03-07T09:30:00Z"
        },
        {
            "consumption": 0.196,
            "interval_start": "2022-03-07T08:30:00Z",
            "interval_end": "2022-03-07T09:00:00Z"
        },
        {
            "consumption": 0.208,
            "interval_start": "2022-03-07T08:00:00Z",
            "interval_end": "2022-03-07T08:30:00Z"
        },
        {
            "consumption": 0.189,
            "interval_start": "2022-03-07T07:30:00Z",
            "interval_end": "2022-03-07T08:00:00Z"
        },
        {
            "consumption": 0.188,
            "interval_start": "2022-03-07T07:00:00Z",
            "interval_end": "2022-03-07T07:30:00Z"
        },
        {
            "consumption": 0.21,
            "interval_start": "2022-03-07T06:30:00Z",
            "interval_end": "2022-03-07T07:00:00Z"
        },
        {
            "consumption": 0.225,
            "interval_start": "2022-03-07T06:00:00Z",
            "interval_end": "2022-03-07T06:30:00Z"
        },
        {
            "consumption": 0.181,
            "interval_start": "2022-03-07T05:30:00Z",
            "interval_end": "2022-03-07T06:00:00Z"
        },
        {
            "consumption": 0.125,
            "interval_start": "2022-03-07T05:00:00Z",
            "interval_end": "2022-03-07T05:30:00Z"
        },
        {
            "consumption": 0.036,
            "interval_start": "2022-03-07T04:30:00Z",
            "interval_end": "2022-03-07T05:00:00Z"
        },
        {
            "consumption": 0.16,
            "interval_start": "2022-03-07T04:00:00Z",
            "interval_end": "2022-03-07T04:30:00Z"
        },
        {
            "consumption": 0.168,
            "interval_start": "2022-03-07T03:30:00Z",
            "interval_end": "2022-03-07T04:00:00Z"
        },
        {
            "consumption": 0.159,
            "interval_start": "2022-03-07T03:00:00Z",
            "interval_end": "2022-03-07T03:30:00Z"
        },
        {
            "consumption": 0.161,
            "interval_start": "2022-03-07T02:30:00Z",
            "interval_end": "2022-03-07T03:00:00Z"
        },
        {
            "consumption": 0.153,
            "interval_start": "2022-03-07T02:00:00Z",
            "interval_end": "2022-03-07T02:30:00Z"
        },
        {
            "consumption": 0.153,
            "interval_start": "2022-03-07T01:30:00Z",
            "interval_end": "2022-03-07T02:00:00Z"
        },
        {
            "consumption": 0.151,
            "interval_start": "2022-03-07T01:00:00Z",
            "interval_end": "2022-03-07T01:30:00Z"
        },
        {
            "consumption": 0.157,
            "interval_start": "2022-03-07T00:30:00Z",
            "interval_end": "2022-03-07T01:00:00Z"
        },
        {
            "consumption": 0.168,
            "interval_start": "2022-03-07T00:00:00Z",
            "interval_end": "2022-03-07T00:30:00Z"
        },
        {
            "consumption": 0.146,
            "interval_start": "2022-03-06T23:30:00Z",
            "interval_end": "2022-03-07T00:00:00Z"
        },
        {
            "consumption": 0.14,
            "interval_start": "2022-03-06T23:00:00Z",
            "interval_end": "2022-03-06T23:30:00Z"
        },
        {
            "consumption": 0.137,
            "interval_start": "2022-03-06T22:30:00Z",
            "interval_end": "2022-03-06T23:00:00Z"
        },
        {
            "consumption": 0.173,
            "interval_start": "2022-03-06T22:00:00Z",
            "interval_end": "2022-03-06T22:30:00Z"
        },
        {
            "consumption": 0.173,
            "interval_start": "2022-03-06T21:30:00Z",
            "interval_end": "2022-03-06T22:00:00Z"
        },
        {
            "consumption": 0.236,
            "interval_start": "2022-03-06T21:00:00Z",
            "interval_end": "2022-03-06T21:30:00Z"
        },
        {
            "consumption": 0.212,
            "interval_start": "2022-03-06T20:30:00Z",
            "interval_end": "2022-03-06T21:00:00Z"
        },
        {
            "consumption": 0.157,
            "interval_start": "2022-03-06T20:00:00Z",
            "interval_end": "2022-03-06T20:30:00Z"
        },
        {
            "consumption": 0.184,
            "interval_start": "2022-03-06T19:30:00Z",
            "interval_end": "2022-03-06T20:00:00Z"
        },
        {
            "consumption": 0.186,
            "interval_start": "2022-03-06T19:00:00Z",
            "interval_end": "2022-03-06T19:30:00Z"
        },
        {
            "consumption": 0.182,
            "interval_start": "2022-03-06T18:30:00Z",
            "interval_end": "2022-03-06T19:00:00Z"
        },
        {
            "consumption": 0.174,
            "interval_start": "2022-03-06T18:00:00Z",
            "interval_end": "2022-03-06T18:30:00Z"
        },
        {
            "consumption": 0.205,
            "interval_start": "2022-03-06T17:30:00Z",
            "interval_end": "2022-03-06T18:00:00Z"
        },
        {
            "consumption": 0.201,
            "interval_start": "2022-03-06T17:00:00Z",
            "interval_end": "2022-03-06T17:30:00Z"
        },
        {
            "consumption": 0.177,
            "interval_start": "2022-03-06T16:30:00Z",
            "interval_end": "2022-03-06T17:00:00Z"
        },
        {
            "consumption": 0.185,
            "interval_start": "2022-03-06T16:00:00Z",
            "interval_end": "2022-03-06T16:30:00Z"
        },
        {
            "consumption": 0.188,
            "interval_start": "2022-03-06T15:30:00Z",
            "interval_end": "2022-03-06T16:00:00Z"
        },
        {
            "consumption": 0.191,
            "interval_start": "2022-03-06T15:00:00Z",
            "interval_end": "2022-03-06T15:30:00Z"
        },
        {
            "consumption": 0.19,
            "interval_start": "2022-03-06T14:30:00Z",
            "interval_end": "2022-03-06T15:00:00Z"
        },
        {
            "consumption": 0.191,
            "interval_start": "2022-03-06T14:00:00Z",
            "interval_end": "2022-03-06T14:30:00Z"
        },
        {
            "consumption": 0.19,
            "interval_start": "2022-03-06T13:30:00Z",
            "interval_end": "2022-03-06T14:00:00Z"
        },
        {
            "consumption": 0.191,
            "interval_start": "2022-03-06T13:00:00Z",
            "interval_end": "2022-03-06T13:30:00Z"
        },
        {
            "consumption": 0.192,
            "interval_start": "2022-03-06T12:30:00Z",
            "interval_end": "2022-03-06T13:00:00Z"
        },
        {
            "consumption": 0.192,
            "interval_start": "2022-03-06T12:00:00Z",
            "interval_end": "2022-03-06T12:30:00Z"
        },
        {
            "consumption": 0.192,
            "interval_start": "2022-03-06T11:30:00Z",
            "interval_end": "2022-03-06T12:00:00Z"
        },
        {
            "consumption": 0.198,
            "interval_start": "2022-03-06T11:00:00Z",
            "interval_end": "2022-03-06T11:30:00Z"
        },
        {
            "consumption": 0.188,
            "interval_start": "2022-03-06T10:30:00Z",
            "interval_end": "2022-03-06T11:00:00Z"
        },
        {
            "consumption": 0.212,
            "interval_start": "2022-03-06T10:00:00Z",
            "interval_end": "2022-03-06T10:30:00Z"
        },
        {
            "consumption": 0.19,
            "interval_start": "2022-03-06T09:30:00Z",
            "interval_end": "2022-03-06T10:00:00Z"
        },
        {
            "consumption": 0.191,
            "interval_start": "2022-03-06T09:00:00Z",
            "interval_end": "2022-03-06T09:30:00Z"
        },
        {
            "consumption": 0.196,
            "interval_start": "2022-03-06T08:30:00Z",
            "interval_end": "2022-03-06T09:00:00Z"
        },
        {
            "consumption": 0.203,
            "interval_start": "2022-03-06T08:00:00Z",
            "interval_end": "2022-03-06T08:30:00Z"
        },
        {
            "consumption": 0.189,
            "interval_start": "2022-03-06T07:30:00Z",
            "interval_end": "2022-03-06T08:00:00Z"
        },
        {
            "consumption": 0.19,
            "interval_start": "2022-03-06T07:00:00Z",
            "interval_end": "2022-03-06T07:30:00Z"
        },
        {
            "consumption": 0.204,
            "interval_start": "2022-03-06T06:30:00Z",
            "interval_end": "2022-03-06T07:00:00Z"
        },
        {
            "consumption": 0.228,
            "interval_start": "2022-03-06T06:00:00Z",
            "interval_end": "2022-03-06T06:30:00Z"
        },
        {
            "consumption": 0.191,
            "interval_start": "2022-03-06T05:30:00Z",
            "interval_end": "2022-03-06T06:00:00Z"
        },
        {
            "consumption": 0.156,
            "interval_start": "2022-03-06T05:00:00Z",
            "interval_end": "2022-03-06T05:30:00Z"
        },
        {
            "consumption": 0.065,
            "interval_start": "2022-03-06T04:30:00Z",
            "interval_end": "2022-03-06T05:00:00Z"
        },
        {
            "consumption": 0.157,
            "interval_start": "2022-03-06T04:00:00Z",
            "interval_end": "2022-03-06T04:30:00Z"
        },
        {
            "consumption": 0.183,
            "interval_start": "2022-03-06T03:30:00Z",
            "interval_end": "2022-03-06T04:00:00Z"
        },
        {
            "consumption": 0.181,
            "interval_start": "2022-03-06T03:00:00Z",
            "interval_end": "2022-03-06T03:30:00Z"
        },
        {
            "consumption": 0.177,
            "interval_start": "2022-03-06T02:30:00Z",
            "interval_end": "2022-03-06T03:00:00Z"
        },
        {
            "consumption": 0.164,
            "interval_start": "2022-03-06T02:00:00Z",
            "interval_end": "2022-03-06T02:30:00Z"
        },
        {
            "consumption": 0.152,
            "interval_start": "2022-03-06T01:30:00Z",
            "interval_end": "2022-03-06T02:00:00Z"
        },
        {
            "consumption": 0.146,
            "interval_start": "2022-03-06T01:00:00Z",
            "interval_end": "2022-03-06T01:30:00Z"
        },
        {
            "consumption": 0.121,
            "interval_start": "2022-03-06T00:30:00Z",
            "interval_end": "2022-03-06T01:00:00Z"
        },
        {
            "consumption": 0.114,
            "interval_start": "2022-03-06T00:00:00Z",
            "interval_end": "2022-03-06T00:30:00Z"
        },
        {
            "consumption": 0.119,
            "interval_start": "2022-03-05T23:30:00Z",
            "interval_end": "2022-03-06T00:00:00Z"
        },
        {
            "consumption": 0.136,
            "interval_start": "2022-03-05T23:00:00Z",
            "interval_end": "2022-03-05T23:30:00Z"
        },
        {
            "consumption": 0.109,
            "interval_start": "2022-03-05T22:30:00Z",
            "interval_end": "2022-03-05T23:00:00Z"
        },
        {
            "consumption": 0.097,
            "interval_start": "2022-03-05T22:00:00Z",
            "interval_end": "2022-03-05T22:30:00Z"
        },
        {
            "consumption": 0.19,
            "interval_start": "2022-03-05T21:30:00Z",
            "interval_end": "2022-03-05T22:00:00Z"
        }
    ]
}